<ApplicationPackageLicenses>
    <ApplicationPackageLicense>
        <CompanyName>Smartface User</CompanyName>
        <LicenseName>Aksigorta</LicenseName>
        <SASVersion>v5.0.0</SASVersion>
        <CreateDate>01.11.2016 09:35:37</CreateDate>
        <ExpireDate>06.11.2026 09:35:37</ExpireDate>
        <LicenseType>Professional</LicenseType>
        <PackageType>iOS</PackageType>
        <PackageName>io.smartface.poc</PackageName>
        <PackageFeatures>
            <PackageFeature>
                <FeatureName>Feature</FeatureName>
                <FeatureValue>Feature</FeatureValue>
            </PackageFeature>
        </PackageFeatures>
        <TripleDESKey>armcNqmcWH11aLiZxToJgZdB4WULB274By8R/XkkAxaXFeSa+KkpjuvhLLqE3oEFzn+8RZbJOylwgRUrtEg8a8qU5Z6MKzwAaEXOmCa8azJjrxhKuN22mfOYerRtOvNkogMG2bfEhPsp6Cl2ah0ZERKcCtpuBEelKjnGhCzxETU=</TripleDESKey>
        <SignData></SignData>
    </ApplicationPackageLicense>
    <ApplicationPackageLicense>
        <CompanyName>Smartface User</CompanyName>
        <LicenseName>Aksigorta</LicenseName>
        <SASVersion>v5.0.0</SASVersion>
        <CreateDate>01.11.2016 09:35:37</CreateDate>
        <ExpireDate>06.11.2026 09:35:37</ExpireDate>
        <LicenseType>Professional</LicenseType>
        <PackageType>Android</PackageType>
        <PackageName>io.smartface.poc</PackageName>
        <PackageFeatures>
            <PackageFeature>
                <FeatureName>Feature</FeatureName>
                <FeatureValue>Feature</FeatureValue>
            </PackageFeature>
        </PackageFeatures>
        <TripleDESKey>armcNqmcWH11aLiZxToJgZdB4WULB274By8R/XkkAxaXFeSa+KkpjuvhLLqE3oEFzn+8RZbJOylwgRUrtEg8a8qU5Z6MKzwAaEXOmCa8azJjrxhKuN22mfOYerRtOvNkogMG2bfEhPsp6Cl2ah0ZERKcCtpuBEelKjnGhCzxETU=</TripleDESKey>
        <SignData></SignData>
    </ApplicationPackageLicense>
    <TripleDESKeyValue>4oVjTxN8q789EDlwGBKyfOvpCxku7gTg</TripleDESKeyValue>
</ApplicationPackageLicenses>