{
    "name": "acenteUretimSorgula",
    "method": "POST",
    "path": "acenteMobilWS-V1.0/acenteMobilRestService/acenteUretimSorgula",
    "mock": {
        "body": {
            "bransUretimListesiType": {
                "bransUretimleri": [{
                    "yilAy": 201609,
                    "gruplamaAdi": "KASKO",
                    "periyot": "Y",
                    "gruplama": "G15",
                    "gruplamaKod": "112",
                    "toplamBransGerceklesenPrimTutari": 72466,
                    "toplamBransHedefPrimTutari": 70500,
                    "oncekiToplamBransPrimTutari": 59590,
                    "toplamBransGerceklesenAdet": 63,
                    "oncekiToplamBransAdet": 56,
                    "toplamBransGerceklesenKomisyonTutari": 10852,
                    "toplamBransKomisyonOrani": 14.97529876079816741644357353793503160103,
                    "toplamBransYeniIsPoliceAdet": 11,
                    "toplamBransYenilemePoliceAdet": 52
                }, {
                    "yilAy": 201609,
                    "gruplamaAdi": "KONUT",
                    "periyot": "Y",
                    "gruplama": "G15",
                    "gruplamaKod": "114",
                    "toplamBransGerceklesenPrimTutari": 83812,
                    "toplamBransHedefPrimTutari": 136000,
                    "oncekiToplamBransPrimTutari": 116040,
                    "toplamBransGerceklesenAdet": 124,
                    "oncekiToplamBransAdet": 110,
                    "toplamBransGerceklesenKomisyonTutari": 21296,
                    "toplamBransKomisyonOrani": 25.40924927218059466424855629265498973894,
                    "toplamBransYeniIsPoliceAdet": 25,
                    "toplamBransYenilemePoliceAdet": 99
                }]
            },
            "errorCode": "0",
            "errorMessage": null,
            "islemTarihi": 1481799188413,
            "errorType": null
        }
    }
}
