{
	"info": {
		"name": "Aksigorta",
		"company": "Smartface User",
		"webSite": "https://www.smartface.io",
		"version": "1.0.0",
		"runtimeVersion": "1100",
		"description": "This is Smartface's default empty project. You can click to Run on Device button to see it on your device."
	},
	"config": {
		"cache": {
			"size": 50
		},
		"debug": {
			"logs": false
		},
		"orientation": {
			"portrait": true,
			"upsideDown": false,
			"landScapeLeft": false,
			"landScapeRight": false
		}
	},
	"api": {
		"facebook": {
			"appUID": "",
			"appSecret": ""
		},
		"twitter": {
			"consumerKey": "",
			"consumerSecret": ""
		},
		"googleMaps": {
			"androidKey": "01u81e3cP5lidl1HRJ55hoBH0N5_Kmlvku4EIYg",
			"iosKey": ""
		},
		"adMob": {
			"publisherId": ""
		},
		"googleCloudMessaging": {
			"senderID": "936748888985"
		},
		"googlePlayServices": {
			"inAppPurchaseProductKey": ""
		}
	},
	"workspace": {
		"autoUpdatePlayers": true
	},
	"build": {
		"input": {
			"ios": {
				"scripts": "scripts",
				"images": "images/iOS",
				"assets": "assets",
				"infoPlist": "config/iOS/Info.plist",
				"urlIdentifier": "",
				"urlSchemes": "",
				"plugins": {
					"facebookios": {
						"url": "https://az793023.vo.msecnd.net/smartface-bin/plugins/Facebook/iOS/2.0.0/facebookios.zip",
						"path": "plugins/iOS/facebookios.zip",
						"active": false
					},
					"googleanalyticsios": {
						"url": "https://az793023.vo.msecnd.net/smartface-bin/plugins/GoogleAnalytics/iOS/2.0.0/googleanalyticsios.zip",
						"path": "plugins/iOS/googleanalyticsios.zip",
						"active": false
					},
					"admobios": {
						"url": "https://az793023.vo.msecnd.net/smartface-bin/plugins/AdMob/iOS/2.0.0/admobios.zip",
						"path": "plugins/iOS/admobios.zip",
						"active": false
					},
					"codereaderios": {
						"url": "https://az793023.vo.msecnd.net/smartface-bin/plugins/CodeReader/iOS/2.0.0/codereaderios.zip",
						"path": "plugins/iOS/codereaderios.zip",
						"active": false
					},
					"salesforcesmf": {
						"url": "https://az793023.vo.msecnd.net/smartface-bin/plugins/SalesForce/iOS/2.0.0/salesforcesmf.zip",
						"path": "plugins/iOS/salesforcesmf.zip",
						"active": false
					}
				},
				"playerPath": null
			},
			"android": {
				"scripts": "scripts",
				"images": "images/Android",
				"assets": "assets",
				"manifest": "config/Android/AndroidManifest.xml",
				"packageProfiles": "config/Android/PackageProfiles.xml",
				"sign": {
					"keystoreFile": "config/Android/smfdefault.keystore",
					"keystorePass": "smartface",
					"aliasName": "smartface",
					"keyPass": "smartface"
				},
				"plugins": {
					"facebook": {
						"url": "https://az793023.vo.msecnd.net/smartface-bin/plugins/Facebook/Android/4.0.0/FacebookAndroid.zip",
						"path": "plugins/Android/FacebookAndroid.zip",
						"active": false
					},
					"googleanalytics": {
						"url": "https://az793023.vo.msecnd.net/smartface-bin/plugins/GoogleAnalytics/Android/3.0.0/GoogleAnalyticsAndroid.zip",
						"path": "plugins/Android/GoogleAnalyticsAndroid.zip",
						"active": false
					},
					"smfimagecode": {
						"url": "https://az793023.vo.msecnd.net/smartface-bin/plugins/CodeReader/Android/2.0.0/CodeReaderAndroid.zip",
						"path": "plugins/Android/CodeReaderAndroid.zip",
						"active": false
					}
				},
				"playerPath": null
			},
			"keys": {
				"project3DesKey": "4oVjTxN8q789EDlwGBKyfOvpCxku7gTg",
				"projectEncryptedKey": "armcNqmcWH11aLiZxToJgZdB4WULB274By8R/XkkAxaXFeSa+KkpjuvhLLqE3oEFzn+8RZbJOylwgRUrtEg8a8qU5Z6MKzwAaEXOmCa8azJjrxhKuN22mfOYerRtOvNkogMG2bfEhPsp6Cl2ah0ZERKcCtpuBEelKjnGhCzxETU="
			}
		},
		"output": {
			"ios": {
				"outputFolder": "output/iOS",
				"bundleIdentifier": "io.smartface.poc"
			},
			"android": {
				"outputFolder": "output/Android",
				"packageName": "io.smartface.poc"
			}
		},
		"tempFolder": "output/.tmp"
	}
}